<?xml version="1.0" encoding="utf-8"?>
<!-- Generator: Adobe Illustrator 16.0.3, SVG Export Plug-In . SVG Version: 6.00 Build 0)  -->
<!DOCTYPE svg PUBLIC "-//W3C//DTD SVG 1.1//EN" "http://www.w3.org/Graphics/SVG/1.1/DTD/svg11.dtd">
<svg version="1.1" id="Capa_1" xmlns="http://www.w3.org/2000/svg" xmlns:xlink="http://www.w3.org/1999/xlink" x="0px" y="0px"
	 width="58.779px" height="58.779px" viewBox="0 0 58.779 58.779" enable-background="new 0 0 58.779 58.779" xml:space="preserve">
<path fill="#CC8031" d="M58.779,29.391c0,16.229-13.16,29.389-29.391,29.389C13.159,58.779,0,45.619,0,29.391
	C0,13.16,13.159,0,29.389,0C45.619,0,58.779,13.16,58.779,29.391"/>
<path fill="#FFFFFF" d="M42.729,25.633c0-3.207-2.601-5.807-5.808-5.807H21.865c-3.207,0-5.807,2.6-5.807,5.807v7.059
	c0,3.205,2.6,5.805,5.807,5.805h15.057c3.207,0,5.808-2.6,5.808-5.805V25.633z M33.229,29.518l-6.006,3.293
	c-0.262,0.143-0.496-0.047-0.496-0.344v-6.762c0-0.301,0.242-0.488,0.504-0.34l6.047,3.467C33.543,28.984,33.5,29.371,33.229,29.518
	"/>
</svg>
